…
## Problem 1

#### Data import

``` r
homicide <- read_csv("./data_file/homicide-data.csv")

homicide
```

    ## # A tibble: 52,179 × 12
    ##    uid        reported_date victim_last  victim_first victim_race victim_age
    ##    <chr>              <dbl> <chr>        <chr>        <chr>       <chr>     
    ##  1 Alb-000001      20100504 GARCIA       JUAN         Hispanic    78        
    ##  2 Alb-000002      20100216 MONTOYA      CAMERON      Hispanic    17        
    ##  3 Alb-000003      20100601 SATTERFIELD  VIVIANA      White       15        
    ##  4 Alb-000004      20100101 MENDIOLA     CARLOS       Hispanic    32        
    ##  5 Alb-000005      20100102 MULA         VIVIAN       White       72        
    ##  6 Alb-000006      20100126 BOOK         GERALDINE    White       91        
    ##  7 Alb-000007      20100127 MALDONADO    DAVID        Hispanic    52        
    ##  8 Alb-000008      20100127 MALDONADO    CONNIE       Hispanic    52        
    ##  9 Alb-000009      20100130 MARTIN-LEYVA GUSTAVO      White       56        
    ## 10 Alb-000010      20100210 HERRERA      ISRAEL       Hispanic    43        
    ## # ℹ 52,169 more rows
    ## # ℹ 6 more variables: victim_sex <chr>, city <chr>, state <chr>, lat <dbl>,
    ## #   lon <dbl>, disposition <chr>
…
homicide_clean
```

    ## # A tibble: 39,693 × 14
    ##    uid        reported_date victim_last  victim_first victim_race victim_age
    ##    <chr>              <dbl> <chr>        <chr>        <chr>            <dbl>
    ##  1 Alb-000003      20100601 SATTERFIELD  VIVIANA      White               15
    ##  2 Alb-000005      20100102 MULA         VIVIAN       White               72
    ##  3 Alb-000006      20100126 BOOK         GERALDINE    White               91
    ##  4 Alb-000009      20100130 MARTIN-LEYVA GUSTAVO      White               56
    ##  5 Alb-000012      20100218 LUJAN        KEVIN        White               NA
    ##  6 Alb-000016      20100308 GRAY         STEFANIA     White               43
    ##  7 Alb-000018      20100323 DAVID        LARRY        White               52
    ##  8 Alb-000019      20100402 BRITO        ELIZABETH    White               22
    ##  9 Alb-000021      20100423 KING         TEVION       Black               15
    ## 10 Alb-000022      20100423 BOYKIN       CEDRIC       Black               25
    ## # ℹ 39,683 more rows
    ## # ℹ 8 more variables: victim_sex <chr>, city <chr>, state <chr>, lat <dbl>,
    ## #   lon <dbl>, disposition <chr>, city_state <chr>, is_solved <dbl>
…
# Step 5: Unnest and organize results
GLM_results <- nested_data %>%
  select(city_state, ORs) %>%
  unnest(ORs) %>%
  select(city_state, OR, CI_lower, CI_upper)

GLM_results
```

    ## # A tibble: 47 × 4
    ## # Groups:   city_state [47]
    ##    city_state         OR CI_lower CI_upper
    ##    <chr>           <dbl>    <dbl>    <dbl>
    ##  1 Albuquerque, NM 1.77     0.825    3.76 
    ##  2 Atlanta, GA     1.00     0.680    1.46 
    ##  3 Baltimore, MD   0.426    0.324    0.558
    ##  4 Baton Rouge, LA 0.381    0.204    0.684
    ##  5 Birmingham, AL  0.870    0.571    1.31 
    ##  6 Boston, MA      0.674    0.353    1.28 
    ##  7 Buffalo, NY     0.521    0.288    0.936
    ##  8 Charlotte, NC   0.884    0.551    1.39 
    ##  9 Chicago, IL     0.410    0.336    0.501
    ## 10 Cincinnati, OH  0.400    0.231    0.667
    ## # ℹ 37 more rows
…
